{
  "project_info": {
    "project_number": "616091050256",
    "firebase_url": "https://contactbids-a1286.firebaseio.com",
    "project_id": "contactbids-a1286",
    "storage_bucket": "contactbids-a1286.appspot.com"
  },
  "client": [
    {
      "client_info": {
        "mobilesdk_app_id": "1:616091050256:android:c4ba2a1e520a5bf9",
        "android_client_info": {
          "package_name": "com.ContactBids"
        }
      },
      "oauth_client": [
        {
          "client_id": "616091050256-jt67gfs7nv27vvn5cfki7qa1hp21uq4d.apps.googleusercontent.com",
          "client_type": 3
        }
      ],
      "api_key": [
        {
          "current_key": "AIzaSyAXA286UHBu5OK8FAXzubDeTCshl8sgyYI"
        }
      ],
      "services": {
        "analytics_service": {
          "status": 1
        },
        "appinvite_service": {
          "status": 1,
          "other_platform_oauth_client": []
        },
        "ads_service": {
          "status": 2
        }
      }
    }
  ],
  "configuration_version": "1"
}